# WaveFront *.obj file (generated by Autodesk ATF)

#mtllib 291d6189-84b7-48dc-8c40-c7cd52af0f61.mtl

#g Body1

v -0.100000 3.100000 0.000000
v -0.100000 -0.100000 0.000000
v -0.100000 -0.100000 1.000000
v -0.100000 3.100000 1.000000
v 4.335164 3.100000 0.000000
v 4.335164 3.100000 1.000000
v 4.335164 1.939139 0.000000
v 4.335164 1.939139 1.000000
v 4.692573 1.939139 0.000000
v 4.692573 1.939139 1.000000
v 4.692573 1.839139 0.000000
v 4.692573 1.839139 1.000000
v 4.235164 1.839139 0.000000
v 4.235164 1.839139 1.000000
v 4.235164 3.000000 0.000000
v 4.235164 3.000000 1.000000
v 0.000000 3.000000 0.000000
v 0.000000 3.000000 1.000000
v 0.000000 0.000000 0.000000
v 0.000000 0.000000 1.000000
v 1.000000 0.000000 0.000000
v 1.000000 0.000000 1.000000
v 1.000000 -0.364741 0.000000
v 1.000000 -0.364741 1.000000
v 0.900000 -0.364741 0.000000
v 0.900000 -0.364741 1.000000
v 0.900000 -0.100000 0.000000
v 0.900000 -0.100000 1.000000

f 1/1/1 2/2/2 4/3/3
f 4/3/3 2/2/2 3/4/4
f 5/5/5 1/6/6 6/7/7
f 6/7/7 1/6/6 4/8/8
f 7/9/9 5/10/10 8/11/11
f 8/11/11 5/10/10 6/12/12
f 9/13/13 7/14/14 10/15/15
f 10/15/15 7/14/14 8/16/16
f 11/17/17 9/18/18 12/19/19
f 12/19/19 9/18/18 10/20/20
f 13/21/21 11/22/22 14/23/23
f 14/23/23 11/22/22 12/24/24
f 15/25/25 13/26/26 16/27/27
f 16/27/27 13/26/26 14/28/28
f 17/29/29 15/30/30 18/31/31
f 18/31/31 15/30/30 16/32/32
f 19/33/33 17/34/34 20/35/35
f 20/35/35 17/34/34 18/36/36
f 21/37/37 19/38/38 22/39/39
f 22/39/39 19/38/38 20/40/40
f 23/41/41 21/42/42 24/43/43
f 24/43/43 21/42/42 22/44/44
f 25/45/45 23/46/46 26/47/47
f 26/47/47 23/46/46 24/48/48
f 27/49/49 25/50/50 28/51/51
f 28/51/51 25/50/50 26/52/52
f 2/53/53 27/54/54 3/55/55
f 3/55/55 27/54/54 28/56/56
f 28/57/57 20/58/58 3/59/59
f 3/59/59 20/58/58 18/60/60
f 3/59/59 18/60/60 4/61/61
f 4/61/61 18/60/60 16/62/62
f 4/61/61 16/62/62 6/63/63
f 6/63/63 16/62/62 8/64/64
f 8/64/64 16/62/62 14/65/65
f 8/64/64 14/65/65 12/66/66
f 26/67/67 24/68/68 28/57/57
f 28/57/57 24/68/68 22/69/69
f 28/57/57 22/69/69 20/58/58
f 12/66/66 10/70/70 8/64/64
f 2/71/71 19/72/72 27/73/73
f 27/73/73 19/72/72 21/74/74
f 27/73/73 21/74/74 23/75/75
f 19/72/72 2/71/71 17/76/76
f 17/76/76 2/71/71 1/77/77
f 17/76/76 1/77/77 5/78/78
f 17/76/76 5/78/78 15/79/79
f 15/79/79 5/78/78 7/80/80
f 15/79/79 7/80/80 13/81/81
f 13/81/81 7/80/80 11/82/82
f 11/82/82 7/80/80 9/83/83
f 23/75/75 25/84/84 27/73/73

g Body2

v 4.692573 0.000000 0.000000
v 1.562988 0.000000 0.000000
v 1.562988 0.000000 1.000000
v 4.692573 0.000000 1.000000
v 4.692573 1.143121 0.000000
v 4.692573 1.143121 1.000000
v 3.400000 1.143121 0.000000
v 3.400000 1.143121 1.000000
v 3.400000 2.241104 0.000000
v 3.400000 2.241104 1.000000
v 3.500000 2.241104 0.000000
v 3.500000 2.241104 1.000000
v 3.500000 1.243121 0.000000
v 3.500000 1.243121 1.000000
v 4.792573 1.243121 0.000000
v 4.792573 1.243121 1.000000
v 4.792573 -0.100000 0.000000
v 4.792573 -0.100000 1.000000
v 1.562988 -0.100000 0.000000
v 1.562988 -0.100000 1.000000
v 1.562988 -0.364741 0.000000
v 1.562988 -0.364741 1.000000
v 1.462988 -0.364741 0.000000
v 1.462988 -0.364741 1.000000
v 1.462988 1.000000 0.000000
v 1.462988 1.000000 1.000000
v 2.655024 1.000000 0.000000
v 2.655024 1.000000 1.000000
v 2.655024 2.000000 0.000000
v 2.655024 2.000000 1.000000
v 1.000000 2.000000 0.000000
v 1.000000 2.000000 1.000000
v 1.000000 1.000000 0.000000
v 1.000000 1.000000 1.000000
v 0.900000 1.000000 0.000000
v 0.900000 1.000000 1.000000
v 0.900000 2.100000 0.000000
v 0.900000 2.100000 1.000000
v 2.755024 2.100000 0.000000
v 2.755024 2.100000 1.000000
v 2.755024 0.900000 0.000000
v 2.755024 0.900000 1.000000
v 1.562988 0.900000 0.000000
v 1.562988 0.900000 1.000000

f 29/85/85 30/86/86 32/87/87
f 32/87/87 30/86/86 31/88/88
f 33/89/89 29/90/90 34/91/91
f 34/91/91 29/90/90 32/92/92
f 35/93/93 33/94/94 36/95/95
f 36/95/95 33/94/94 34/96/96
f 37/97/97 35/98/98 38/99/99
f 38/99/99 35/98/98 36/100/100
f 39/101/101 37/102/102 40/103/103
f 40/103/103 37/102/102 38/104/104
f 41/105/105 39/106/106 42/107/107
f 42/107/107 39/106/106 40/108/108
f 43/109/109 41/110/110 44/111/111
f 44/111/111 41/110/110 42/112/112
f 45/113/113 43/114/114 46/115/115
f 46/115/115 43/114/114 44/116/116
f 47/117/117 45/118/118 48/119/119
f 48/119/119 45/118/118 46/120/120
f 49/121/121 47/122/122 50/123/123
f 50/123/123 47/122/122 48/124/124
f 51/125/125 49/126/126 52/127/127
f 52/127/127 49/126/126 50/128/128
f 53/129/129 51/130/130 54/131/131
f 54/131/131 51/130/130 52/132/132
f 55/133/133 53/134/134 56/135/135
f 56/135/135 53/134/134 54/136/136
f 57/137/137 55/138/138 58/139/139
f 58/139/139 55/138/138 56/140/140
f 59/141/141 57/142/142 60/143/143
f 60/143/143 57/142/142 58/144/144
f 61/145/145 59/146/146 62/147/147
f 62/147/147 59/146/146 60/148/148
f 63/149/149 61/150/150 64/151/151
f 64/151/151 61/150/150 62/152/152
f 65/153/153 63/154/154 66/155/155
f 66/155/155 63/154/154 64/156/156
f 67/157/157 65/158/158 68/159/159
f 68/159/159 65/158/158 66/160/160
f 69/161/161 67/162/162 70/163/163
f 70/163/163 67/162/162 68/164/164
f 71/165/165 69/166/166 72/167/167
f 72/167/167 69/166/166 70/168/168
f 30/169/169 71/170/170 31/171/171
f 31/171/171 71/170/170 72/172/172
f 72/173/173 54/174/174 31/175/175
f 31/175/175 54/174/174 52/176/176
f 31/175/175 52/176/176 48/177/177
f 48/177/177 52/176/176 50/178/178
f 54/174/174 72/173/173 56/179/179
f 56/179/179 72/173/173 70/180/180
f 56/179/179 70/180/180 58/181/181
f 58/181/181 70/180/180 68/182/182
f 58/181/181 68/182/182 66/183/183
f 58/181/181 66/183/183 60/184/184
f 60/184/184 66/183/183 64/185/185
f 60/184/184 64/185/185 62/186/186
f 31/175/175 48/177/177 32/187/187
f 32/187/187 48/177/177 46/188/188
f 32/187/187 46/188/188 34/189/189
f 34/189/189 46/188/188 44/190/190
f 34/189/189 44/190/190 42/191/191
f 40/192/192 38/193/193 42/191/191
f 42/191/191 38/193/193 36/194/194
f 42/191/191 36/194/194 34/189/189
f 30/195/195 53/196/196 71/197/197
f 71/197/197 53/196/196 55/198/198
f 71/197/197 55/198/198 69/199/199
f 69/199/199 55/198/198 57/200/200
f 69/199/199 57/200/200 67/201/201
f 67/201/201 57/200/200 59/202/202
f 67/201/201 59/202/202 65/203/203
f 65/203/203 59/202/202 63/204/204
f 63/204/204 59/202/202 61/205/205
f 29/206/206 47/207/207 30/195/195
f 30/195/195 47/207/207 51/208/208
f 30/195/195 51/208/208 53/196/196
f 47/207/207 29/206/206 45/209/209
f 45/209/209 29/206/206 33/210/210
f 45/209/209 33/210/210 43/211/211
f 43/211/211 33/210/210 41/212/212
f 41/212/212 33/210/210 35/213/213
f 41/212/212 35/213/213 37/214/214
f 37/214/214 39/215/215 41/212/212
f 47/207/207 49/216/216 51/208/208

# 72 vertices
# 216 texture params
# 216 normals
# 136 facets

# 2 groups
